﻿;;Standard ordering of file types for SD, Fallback alphabetical
;;
;;In addition to specifying the order, this file can be used
;;to specify any options of the function sd-register-file-type, e.g. 
;;  (:bundle :title "My Bundle Title")
;;
;;Beware: The Annotation application is loaded after this file has
;;been read. Consequently, a Annotation file type cannnot be removed
;;by simply commenting out that file type in this file. The following
;;example illustrates the removal of the file type :hatches from the
;;file manager:
;;       (:hatches :enable-form nil)


(:bundle)        ;;Annotation
(:drawing)       ;;Annotation
(:package)
(:sd_bundle)
(:soliddesigner)
(:soliddesigner-instances)
(:soliddesigner-contents)
(:soliddesigner-modified)
(:sd-model-load-configuration)
(:session)
(:environment)
(:sheet)         ;;Annotation
(:sketch); :enable-form nil)        ;;Annotation
(:picture_2d)    ;;Annotation
(:uni_picture)        ;;Annotation - invisible - drag&drop
(:ole_2d)        ;;Annotation
(:frame)         ;;Annotation
(:any_2d)        ;;Annotation
(:ext_mi)        ;;Annotation
(:hatches :enable-form nil)       ;;Annotation
(:dim-fix :enable-form nil)       ;;Annotation
(:dim-tol :enable-form nil)       ;;Annotation
(:sdexp)
;(:sd-part)
;(:sd-part-contents)
;(:sd-assembly)
;(:sd-assembly-contents)
;(:sd-container)
;(:sd-container-contents)
;(:sd-workplane)
;(:sd-workplane-contents)
;(:sd-wpset)
;(:sd-wpset-contents)
("-")   ;;above types are native formats, below types are non-native formats
(:stp) ;; IsoDraw Export Format
(:dxf)      ;;Annotation
(:dwg)      ;;Annotation
(:2d-iges)  ;;Annotation
(:ascii)    ;;Annotation
(:dim-settings :enable-form nil)  ;;Annotation
(:plotters :enable-form nil)      ;;Annotation
(:pens :enable-form nil)          ;;Annotation
(:igesdek)
(:step)
(:acis_sat)
(:sat)      ;;Old version
(:proe_in)
(:proe_in_xml)
(:proe_out)
(:proe_out_atb)
(:solidworks)
(:inventornative)
(:productview)
;(:productview_in)
(:stereolithography)
(:vrml)
(:skp)
(:xvl)
(:v_xvl)
(:catia)
;(:catia_expert)
;(:catia_v5)
(:ideas)
(:inventor)
(:pro_engineer)
(:ug_expert)
;; (:parasolid)
(:parasolid_solidedge)
(:parasolid_unigraphics)
(:parasolid_solidworks)
(:mechanica)
(:me30)
(:mi)
(:mi_out)
(:sd_any_2d)
;(:toolbar)
(:recorder)
(:lisp)
(:lisp-compiled)
(:macro)    ;;Annotation
(:html)
(:bmp)
(:animation)
(:uni_mi)   ;;Invisible
(:edrawings3d)
(:edrawings2d)
(:xml)
(:u3d)
(:3dpdf)
(:jobin)
(:jobout)
(:lwa)
(:image)
(:universal) ;;'ALL', should be the last entry.
