{
  Copyright (c) 2001 CoCreate Software GmbH & Co. KG.  All Rights Reserved.
}

{* Specifies the use of thumbnail bitmaps for display *}
DEFINE Awmc_use_thumbnails               1                      END_DEFINE

{* Specifies various thumbnail related constants *}
DEFINE Awm_thumbnail_win       "WMDT_THUMBNAIL_WINDOW"          END_DEFINE
DEFINE Awm_thumbnail_mimetype  "image/jpeg"                     END_DEFINE
DEFINE Awm_thumbnail_filetype  "jpg"                            END_DEFINE

{ These set the width and height of the jpeg file before the BITMAP_TO_FILE call }
DEFINE Awm_thmbnl_pixel_width         265                       END_DEFINE
DEFINE Awm_thmbnl_pixel_height        170                       END_DEFINE

{ These set the position and the size of the window displaying the thumbnail in DDM }
DEFINE Awm_thmbnl_win_position        "82,0"                    END_DEFINE
DEFINE Awm_thmbnl_char_width           20                       END_DEFINE
DEFINE Awm_thmbnl_char_height           7                       END_DEFINE
